<?xml version="1.0" encoding="UTF-8"?>
<svg width="123.52" height="110.08" version="1.1" viewBox="0 0 123.52 110.08" xmlns="http://www.w3.org/2000/svg" xmlns:cc="http://creativecommons.org/ns#" xmlns:dc="http://purl.org/dc/elements/1.1/" xmlns:rdf="http://www.w3.org/1999/02/22-rdf-syntax-ns#" xmlns:xlink="http://www.w3.org/1999/xlink">
 <metadata>
  <rdf:RDF>
   <cc:Work rdf:about="">
    <dc:format>image/svg+xml</dc:format>
    <dc:type rdf:resource="http://purl.org/dc/dcmitype/StillImage"/>
    <dc:title/>
   </cc:Work>
  </rdf:RDF>
 </metadata>
 <image width="123.52" height="110.08" image-rendering="optimizeQuality" preserveAspectRatio="none" xlink:href="data:image/png;base64,iVBORw0KGgoAAAANSUhEUgAAAYIAAAFYCAYAAABeX/vAAAAAAXNSR0IArs4c6QAAAAZiS0dEAP8A /wD/oL2nkwAAAAlwSFlzAAAuIwAALiMBeKU/dgAAAAd0SU1FB9kJAQ8nMcwOFzEAAAAZdEVYdENv bW1lbnQAQ3JlYXRlZCB3aXRoIEdJTVBXgQ4XAAAMtklEQVR42u3dS1JbabOGUYugxQCY/1w8GwZA V25UyGUTGNBmf5fMd62Iv3NOlUvsSz47JQyXnz9//gD2cHl6vt7zz19fXy6OGt/16BBAreH/r39X FBACCBn+n/2ZgsC9HhwCmBuAEREYHRmEACgQADFACEAAxAAhAAEQA4QABEAMEAIwcEEIQAREii/z 9wjAgMVGAIgAQgC0j4BwIQRgoIIQgAiAEIAIgBCACIAQgAiAEIAIgBCACMAPf7MYRICp18qOv0FO CCAkAn6F5R7Xx46/Z1oIwCbAomtjl98z7TMCgE+GdfffMy0EYBtgUQB2uf68NQQBfD5QYyCveqvI RgC2AcKvAyHAzS8CroHNftf07NciBNCct4U8CAgBGAIU2AJWXptCALYBDwA2AjAMcN6TX6sQgG1A BGwEYCDgnCfzF8rANiAANgJABBAC8ISIcy0EgG1ABIQAEAEREAIAERACMCRsA86vEAAiIAJCAIiA CAgBIAIknGMhAAPCNmAjAERABIQAEAFiz7UQ4Oby2m0D4fz0URAAws+5jQAMBNtAOCEAERCB8PMu BBiwXiPhfEYAAmAbCD//NgIMXK+JcEKAGGzwOkTANrDyGhACxEAAsBGAGAiAbSB5OxUCmHgjCgA7 XhNCAJOe1EWAXfn2UfhgYPsbrCRsiEIAJ9yogkHlDdFbQxB201fTMbK7XQ9CABD+UCAEAOGboRAA BEdACCB8AOAaEAI4ge8YovqDgBAAhG+DQgAQHAEhAAzUAa+32msWAkAMQqMlBGAwlFHhA/nK59rP GoLmAwoBEAJAbAVACAABEAEhAERAAP7Bh8XQ8Ik14bjOHMrdf8+0jQAoFYE/B/L19eUyKshJ3/El BEDJCLz9v50RhNRv9xUCGDS0OPdYfjak3/7/j4ZFCAAKRsCQFwKgaQQM8zl81xAMeoq99591DEVA CAAREIElvDUEg7YBjh07ERACQACYzFtDgAgIAXDmUDvr3xMBZvHWELAsmCIgBBy8kdw8dbYBx8h1 LAQMGTBv/x03VI3z3Pk8iYAQsPjp8vbnublsAxWOjetUCNw0njoJvpZdn3vyXUMTbpjb/zy9Zse7 y7kRASGgwI0vBox8qBGBfrw11HQQe5tIUHc5Dq5DG4EnJoOMoudkt+sZG4GbG+e04NduG7ARuGm8 PoI3WhEQAhHAeS1y3Yx4C0gEhMCw8Fqd18ANQATq8hmBQYFrGCHADUTC+Z3x9dkGavLWkCFB8+tp 1reBioCNwE2Lcxz8NYmAEBgQ4JqlMG8NuaGc50bnecXXYhuwERgOEHy9ioCNwE2Fc734v73y5wGJ gI3AYADXKTYCNxfOd+rrtg3YCIDgcImAjcBNVpAbt/75tq1iI3CT4dr0UIGNANLCLwIIgaHg5nVd whTeGsKA9fo8UNgIDAVwPYqAELjpWnIDux5dQwgBbDxsb0PWZooQGAie5MTJNYQQQOLAFQGEwM3n Jsb1gxDgJgaEAGyBHiQQAgw9RAAhMCRP/zoFAfgqP2IiIHzJT3qCaBNACHgzDN304H4UAhdh/JaA bWCXbfRf/8zs8/LopLhIR154o4/7R6/bOReBqnNm9gObjYDSQ3NW0ESAFffOrCAIAW5KEWDza+3y 9Hwded6EoOhNbOAhAlkPGiO3AyEoehO/vRiEARGwaR7lbxY3uYmvry+X2/8cLUSgbwRGvJ4HN0K/ 1y4IiEDvTeDs12UjaHwTCwLO//FBu/vbQWe+PiEIuIkFwfVD/S1gJB8WB93AvuPINYQIxG8EFW6O Ga/RkHCd0yMCZ71mbw2F3sCGhWuI/4dp+pb8mHij7HbSV928Ox4LxjwhCkSfLUAIGg7A1TeoGBh4 qaFw3YeHQADefy1uDKFIiYNrXQiWDj8rOtWGZbdrVgSE4N3BvPJn5qcdC2oPzupRcH2/z3cN/Rj7 ffvVbhwbC58NUsPURhARg+9c6AYptgTbgBA03RCSfgG8t4i4d8Dufk+4noVgWBzEAP4etDveJ67j z/mMADh16Bq8QoAtCH4HYXUUukfprHtUCBADWkbBZvJ1PiMAlgxnDxlCQLGtwNMVM57Yj8Yh8fo8 M6RCgBiwdRwYz2cELHkCAYQAMQA2uQ+FACD8YUwIOHQh2gygDyFgqycTYP49JwSIAdgIQAwg+T7z 9wg49SL1feCsGHCuOyFgs5vaTYnNsdaxEwJsBxj84cdRCBAEDP/w4ykETLmYxcCwGqXrtTXzuAoB blI8+YcfXyFAABCAcEKAAGD4hx9vIUAAEIDwYy4EiACGf/hxFwIEAAEIP/ZCgAAYQOW/jqrX5C7n QAgQAMOf8HMhBAiAgUP4ORECRMCQIfz8CAEiYLC0OAa7X687nychQAAMfMLPnRAgAoaFrSD8nPpV lfwOgAiIsJie9zoqhV0IMIAQg9AA3HhrSACgZQxmXt/V39azEYgAzovNIGwDsBFg2BAXgzOv+Y4f 6guBCEDUdnDkHuj+HV1CIAAQGwX+4zMCEcD5QggwVAAhQASAWD4jEADARoAIAEKACABCgAgAQoAI AEKACABCgAjg3BLFt48aEoCNABEAhAARYCt+MBpCgAgAQkCPCHiyhf35sFgABACEABEYFwBvaYEQ EBIBGwAIAYER+Gz42wZACAgNwM6vW5xACERg0vA3cEEIaDAwjz757/g13b4WWwEIgQgMGv6dthmv FyEgLgBnDp4qb3PZCkAIoiOQ9MTp6RpCQ/DesF09EFYFYObX7SkbhGDrAbsqDjOHo6ffrx8Pbw9B 4RCcefPe/qxRA3TkoNlt6Ff83EMMoFAIRt+sl6fn6+4fmHrad6wgMgQzn9bOiMFZr7faIKv+U1J3 ev0ihhAsHixHY3DG6zUA1g1SbxEhBCJwOAbffa0dhn+Xp2kxQAgMlKmv1dP/vtuEGCAEIvDhVvCd 19lx+HtvHYQgZgsQgP2f5G0FUDAEu99s3v7Ji4AYIAQCsO1g6hjKKudREEjwYHicNzhsAf2i65wi BCIgAJuey5nHfNZ/S3RYZcpbQx0j4KbNOvbeKsJGIALRG4AAewBACETAEHD8PQwgBNkRcOOvP687 Hn/XBEIQFAGXiXMw4yHB5w+0CYGLGbGC4BCIQG8rzm+lASsGxIdABDh7qFYcrGJAbAg6/2Uxlwiu G4TAJoBBKgYIAcwKfqcBuurXnsLUELhoOXNodnyKthnQOgR+nDS4lujh0A+dswlgSIKNwHDCcR70 tXrQYvsQuEjzjDjnYgv7eHQIsAnM+7pnPkh99t8SYw6FIGEbcHM4vjvE4PL0fB39dtLbf8e1LwQg AsWc/WB2+/OcpzwPqy46gypr2Di25x37y9PzdeT9OPrPp3AIQATmH48/B/LsAS0GQuDmxHHdaDNY NZTFQAhiLgbDasx5d1xdB9gIsAnQ5PiIQXgIbAM4pmAjMLC8HeCYYisQAhHAMQUhABEAIegysAwt EVit6tss3h4SAgwpHF+EwJMrjqkI0E3ED50zrMYMKsdVBLARYBNABBACAytxWDmmIkAvbd8aMqwc VxGA4I3AsBozsBxXEUAIRABEgMQQVBms/qKYbQAI3ggMKcfXNuBaYHAIdj35tgBDy/GEiRvBbgNX ABxnEYBzlPv2UYNp3uByrMFGsNVg8DaQ4NoGXBNsEIIVF4MAGFyOJYx16K2h22AeeQMY/usGl2OP a0II7ro4zoyBi80NbxuAYiF4OzjuvSkMHYMLDwc0CIELpk8EnD9RJZPfR4AI4LoQAjy9gggIASKA Y4oQ4MkPXBNCQOCTqxse1wRCEBwBHFcQgqZDyi+hxzbAPR4dgp5Pp94SQgQQgsDhf/TPMABwDQgB QQH46M81DNadAxFgJZ8RFBk+MwaQD0FtAggBoQEQAxFACBAAMRABhICdIuB1MDIAIoAQ2ALwJA1C YAuwFdgEQAgMW2wxIAQiIFQiAEJgwNJ0uHoriHv4m8UCgFBhI0AE6DJsRQAbgQggTGAjEAGShq/P AhACESA4BgKAEIgAoTGwBSAEIkBoDASAUXxYLAKcHIOzz7/hjxCIAIW3gyPXg8GPEIgATaMAu/IZ gQgAQoAIeKIFIUAEACEAQAiwDfzF20IgBARHABACwtkGQAiwDQBCgAgAQkAkbwuBEBC8DYgACAEA QoBtABACAISALLYBEAI+4EdJAEKACABCAEBPflWlTQCwEQAgBNgGACFABAAhQASAQD4sFgDARgCA EGAbAGJ5a0gAABsBIgAIAS0G6/X15SICgBCIFYAQJA1aWwAgBOIEIARpg9cWAJzJt48ejMGK31pm +ANCYBMBEIKUzcDwB4QgMAiGPyAEDYJwTxQMfkAIAqIAsLtfO1r8vTV5cbMAAAAASUVORK5CYII= "/>
</svg>
